{
  "common": {
    "name": "DJ JIM - 8-bit Electro Speed",
    "promorank": 0,
    "isInTop100": false,
    "downloadUrlAroundName": "https://promodj.com/download/6952899/DJ%20JIM%20-%208-bit%20Electro%20Speed%20%28promodj.com%29.mp3",
    "downloadM3uUrl": "https://promodj.com/prelisten_m3u/6952899/DJ_JIM_8_bit_Electro_Speed.m3u",
    "isOnPdjFM": true,
    "onPromodjFmFromDate": "2020-02-13 00:00:00"
  },
  "musician": {
    "nickname": "DJ JIM (Evgeny Glotikov)",
    "url": "https://promodj.com/jim"
  },
  "description": {
    "downloadAnchors": [
      {
        "format": "mp3",
        "bitrate": "320",
        "href": "https://promodj.com/source/6952899/DJ%20JIM%20-%208-bit%20Electro%20Speed%20%28promodj.com%29.mp3"
      }
    ],
    "styles": [
      "Electro House",
      "8-bit"
    ],
    "countOfListens": 0,
    "countOfDownloads": 0,
    "countOfBookmarks": 0,
    "isInCompetition": false,
    "remixOn": null,
    "length": 3246,
    "bpm": null,
    "bpmFrom": 109,
    "bpmTo": 130,
    "isMastered": true,
    "isSigned": false,
    "isPodsafe": false,
    "key": null,
    "sizeInMegaBytes": 124.9,
    "source": "CDJ",
    "recordOnDate": "2020-02-10 00:00:00",
    "publicationOnDate": "2020-02-12 23:40:00"
  },
  "playerInitializeData": {
    "no_preroll": false,
    "seekAny": true,
    "sources": [
      {
        "length": 3245.505,
        "size": 130941941,
        "URL": "https://promodj.com/prelisten/6952899/DJ_JIM_8_bit_Electro_Speed.mp3?hq=1",
        "waveURL": "https://promodj.com/waveform/6952899/6952899.png?stub=1&cached=1"
      }
    ],
    "defaultSource": 0,
    "defaultSourceLQ": 0,
    "downloadable": true,
    "downloadURL": "https://promodj.com/download/6952899/DJ%20JIM%20-%208-bit%20Electro%20Speed%20%28promodj.com%29.mp3",
    "title": "DJ JIM - 8-bit Electro Speed",
    "title_html": "DJ JIM - 8-bit Electro Speed",
    "titleURL": "https://promodj.com/jim/mixes/6952899/DJ_JIM_8_bit_Electro_Speed",
    "kind": "mix"
  },
  "links": {
    "shortLink": "https://pdj.cc/ftaLx",
    "playerIframe": "<iframe src=\"//promodj.com/embed/6952899/cover\" width=\"100%\" height=\"300\" style=\"min-width: 450px; max-width: 900px\" frameborder=\"0\" allowfullscreen></iframe>",
    "miniPlayerIframe": "<iframe src=\"//promodj.com/embed/6952899/big\" width=\"100%\" height=\"70\" style=\"min-width: 200px; max-width: 900px\" frameborder=\"0\" allowfullscreen></iframe>"
  }
}