{
  "common": {
    "countTracksInShownGroup": 10
  },
  "groups": [
    {
      "href": "https://promodj.com/djbaur/groups/659456/https_telegram_me_djbaur",
      "count": 0
    }
  ],
  "tracks": [
    {
      "href": "https://promodj.com/djbaur/mixes/7266237/DJ_BAUR_KLUBBTOOLS_8_0_Mix",
      "name": "DJ BAUR - KLUBBTOOLS 8.0 Mix",
      "countOfListens": 0,
      "length": 4796,
      "countOfComments": 0,
      "downloadMp3OrMovUrl": "https://promodj.com/download/7266237/DJ%20BAUR%20-%20KLUBBTOOLS%208.0%20Mix%20%28promodj.com%29.mp3",
      "countOfDownloads": 0,
      "promorank": 0,
      "styles": [
        "Dance Pop",
        "Russian Pop"
      ],
      "isVideo": false
    }
  ]
}